<?xml version="1.0" standalone="no"?>
<!DOCTYPE svg PUBLIC "-//W3C//DTD SVG 20010904//EN"
 "http://www.w3.org/TR/2001/REC-SVG-20010904/DTD/svg10.dtd">
<svg version="1.0" xmlns="http://www.w3.org/2000/svg"
 width="100.000000pt" height="100.000000pt" viewBox="0 0 100.000000 100.000000"
 preserveAspectRatio="xMidYMid meet">
<metadata>
Created by potrace 1.11, written by Peter Selinger 2001-2013
</metadata>
<g transform="translate(0.000000,100.000000) scale(0.100000,-0.100000)" stroke="none">
<path d="M220 861 c0 -45 1 -44 -72 -24 -17 4 -18 -14 -18 -286 l0 -290 43
-11 c23 -6 56 -15 73 -19 27 -8 40 -3 98 37 73 51 73 53 -16 72 -32 7 -59 16
-59 19 -1 3 -2 90 -3 194 -1 142 1 184 10 175 6 -7 84 -139 173 -293 89 -154
168 -286 175 -293 7 -7 22 -14 35 -17 12 -2 30 -6 39 -9 9 -3 32 -8 50 -11 34
-6 34 -5 35 52 0 12 5 20 11 18 6 -2 26 -6 44 -9 l32 -5 0 289 0 289 -42 11
c-24 6 -56 15 -72 20 -32 11 -29 12 -110 -47 -37 -27 -54 -44 -45 -47 8 -3 41
-11 74 -19 l60 -14 1 -192 c1 -106 -2 -189 -6 -184 -5 4 -50 80 -101 168 -50
88 -127 221 -170 296 l-79 136 -57 12 c-32 7 -68 15 -80 18 -21 5 -23 2 -23
-36z m126 -34 c3 -3 199 -339 228 -391 92 -162 129 -223 146 -238 34 -28 25
-41 -22 -34 -23 4 -43 8 -44 9 0 1 -59 101 -129 222 -225 388 -236 406 -249
411 -7 3 -13 12 -13 20 0 13 8 15 41 10 22 -4 41 -8 42 -9z m-126 -282 c3
-143 9 -230 15 -231 6 0 23 -4 39 -9 26 -7 27 -9 12 -20 -12 -9 -28 -10 -59
-3 -23 5 -43 11 -45 13 -6 5 -10 468 -4 478 2 4 11 7 20 5 15 -3 18 -30 22
-233z m573 168 c15 -3 28 -11 29 -17 1 -6 2 -116 3 -244 1 -230 1 -233 -19
-230 -20 3 -21 9 -23 218 -1 118 -2 220 -2 227 -1 7 -20 17 -43 24 -40 10 -41
12 -23 25 11 8 26 12 35 9 8 -4 27 -9 43 -12z"/>
</g>
</svg>
